2019-03-15 13:38:08.3099|INFO|QueenOfSpadesService.QSService|OnStart
2019-03-15 13:38:08.3699|INFO|QueenOfSpadesService.QSService|Check tables
2019-03-15 13:38:11.8832|INFO|QueenOfSpadesService.QSService|Table Bets exists
2019-03-15 13:38:11.8832|INFO|QueenOfSpadesService.QSService|Table Winner exists
2019-03-15 13:38:11.9042|INFO|QueenOfSpadesService.QSService|Table Status exists
2019-03-15 13:38:11.9042|INFO|QueenOfSpadesService.QSService|Owin host initializing
2019-03-15 13:38:11.9042|INFO|QueenOfSpadesService.QSService|IP adress of Server: http://192.168.1.125
2019-03-15 13:38:11.9042|INFO|QueenOfSpadesService.QSService|port: 8787
2019-03-15 13:38:11.9042|INFO|QueenOfSpadesService.QSService|Start OWIN host
2019-03-15 13:38:12.6343|INFO|QueenPlayOWIN.WSManager|webSocketUri is ws://192.168.1.125:4649/Jackpot
2019-03-15 13:38:12.7373|INFO|QueenPlayOWIN.WSManager|Web socket was opened
2019-03-15 13:38:42.5523|INFO|QueenPlayOWIN.QueenOfSpadesController|SetStatusKOH
2019-03-15 13:38:42.6573|INFO|QueenPlayOWIN.QueenOfSpadesController|data: 0  http://localhost:16869/Games/ZarOfHill
2019-03-15 13:38:43.9044|INFO|QueenPlayOWIN.QueenOfSpadesController|SetStatusKOH
2019-03-15 13:38:43.9044|INFO|QueenPlayOWIN.QueenOfSpadesController|data: 1  http://localhost:16869/Games/ZarOfHill
2019-03-15 13:38:49.6870|INFO|QueenPlayOWIN.QueenOfSpadesController|SetStatusKOH
2019-03-15 13:38:49.6870|INFO|QueenPlayOWIN.QueenOfSpadesController|data: 2  http://localhost:16869/Games/ZarOfHill
2019-03-15 13:39:28.1359|INFO|QueenPlayOWIN.QueenOfSpadesController|SetStatusKOH
2019-03-15 13:39:28.1359|INFO|QueenPlayOWIN.QueenOfSpadesController|data: 0  http://localhost:16869/Games/ZarOfHill
2019-03-15 13:39:30.3781|INFO|QueenPlayOWIN.QueenOfSpadesController|SetStatusKOH
2019-03-15 13:39:30.3781|INFO|QueenPlayOWIN.QueenOfSpadesController|data: 1  http://localhost:16869/Games/ZarOfHill
2019-03-15 13:39:38.9630|INFO|QueenPlayOWIN.QueenOfSpadesController|SetStatusKOH
2019-03-15 13:39:38.9630|INFO|QueenPlayOWIN.QueenOfSpadesController|data: 2  http://localhost:16869/Games/ZarOfHill
