2019-03-18 13:36:14.9296|INFO|QueenOfSpadesService.QSService|OnStart
2019-03-18 13:36:15.0856|INFO|QueenOfSpadesService.QSService|Check tables
2019-03-18 13:36:19.2976|INFO|QueenOfSpadesService.QSService|Table Bets exists
2019-03-18 13:36:19.3132|INFO|QueenOfSpadesService.QSService|Table Winner exists
2019-03-18 13:36:19.3288|INFO|QueenOfSpadesService.QSService|Table Status exists
2019-03-18 13:36:19.3288|INFO|QueenOfSpadesService.QSService|Owin host initializing
2019-03-18 13:36:19.3288|INFO|QueenOfSpadesService.QSService|IP adress of Server: http://192.168.1.125
2019-03-18 13:36:19.3288|INFO|QueenOfSpadesService.QSService|port: 8787
2019-03-18 13:36:19.3288|INFO|QueenOfSpadesService.QSService|Start OWIN host
2019-03-18 18:53:21.5464|INFO|QueenPlayOWIN.WSManager|webSocketUri is ws://192.168.1.125:4649/Jackpot
2019-03-18 18:53:21.8074|INFO|QueenPlayOWIN.WSManager|Web socket was opened
