2019-03-27 13:54:07.8822|INFO|QueenOfSpadesService.QSService|OnStart
2019-03-27 13:54:07.9914|INFO|QueenOfSpadesService.QSService|Check tables
2019-03-27 13:54:13.0927|INFO|QueenOfSpadesService.QSService|Table Bets exists
2019-03-27 13:54:13.1083|INFO|QueenOfSpadesService.QSService|Table Winner exists
2019-03-27 13:54:13.1083|INFO|QueenOfSpadesService.QSService|Table Status exists
2019-03-27 13:54:13.1239|INFO|QueenOfSpadesService.QSService|Owin host initializing
2019-03-27 13:54:13.1239|INFO|QueenOfSpadesService.QSService|IP adress of Server: http://192.168.1.125
2019-03-27 13:54:13.1239|INFO|QueenOfSpadesService.QSService|port: 8787
2019-03-27 13:54:13.1239|INFO|QueenOfSpadesService.QSService|Start OWIN host
