2019-03-14 15:18:39.2149|INFO|QueenOfSpadesService.QSService|OnStart
2019-03-14 15:18:39.2809|INFO|QueenOfSpadesService.QSService|Check tables
2019-03-14 15:18:50.0319|INFO|QueenOfSpadesService.QSService|Table Bets exists
2019-03-14 15:18:50.0519|INFO|QueenOfSpadesService.QSService|Table Winner exists
2019-03-14 15:18:50.0709|INFO|QueenOfSpadesService.QSService|Table Status exists
2019-03-14 15:18:50.0719|INFO|QueenOfSpadesService.QSService|Owin host initializing
2019-03-14 15:18:50.0719|INFO|QueenOfSpadesService.QSService|IP adress of Server: http://192.168.1.125
2019-03-14 15:18:50.0889|INFO|QueenOfSpadesService.QSService|port: 8787
2019-03-14 15:18:50.1099|INFO|QueenOfSpadesService.QSService|Start OWIN host
2019-03-14 15:19:02.9226|INFO|QueenPlayOWIN.WSManager|webSocketUri is ws://192.168.1.125:4649/Jackpot
2019-03-14 15:19:03.8505|INFO|QueenPlayOWIN.WSManager|Web socket was opened
2019-03-14 15:26:34.4859|INFO|QueenPlayOWIN.QueenOfSpadesController|SetStatusKOH
2019-03-14 15:26:34.7329|INFO|QueenPlayOWIN.QueenOfSpadesController|data: 1  http://localhost:16869/Games/ZarOfHill
2019-03-14 15:29:41.6479|INFO|QueenPlayOWIN.QueenOfSpadesController|SetStatusKOH
2019-03-14 15:29:41.6479|INFO|QueenPlayOWIN.QueenOfSpadesController|data: 2  http://localhost:16869/Games/ZarOfHill
2019-03-14 15:48:02.5929|INFO|QueenPlayOWIN.QueenOfSpadesController|SetStatusKOH
2019-03-14 15:48:02.5929|INFO|QueenPlayOWIN.QueenOfSpadesController|data: 0  http://localhost:16869/Games/ZarOfHill
2019-03-14 15:49:51.1889|INFO|QueenPlayOWIN.QueenOfSpadesController|SetStatusKOH
2019-03-14 15:49:51.1939|INFO|QueenPlayOWIN.QueenOfSpadesController|data: 0  http://localhost:16869/Games/ZarOfHill
2019-03-14 15:51:29.0989|INFO|QueenPlayOWIN.QueenOfSpadesController|SetStatusKOH
2019-03-14 15:51:29.1079|INFO|QueenPlayOWIN.QueenOfSpadesController|data: 0  http://localhost:16869/Games/ZarOfHill
2019-03-14 15:52:48.4799|INFO|QueenPlayOWIN.QueenOfSpadesController|SetStatusKOH
2019-03-14 15:52:48.4799|INFO|QueenPlayOWIN.QueenOfSpadesController|data: 0  http://localhost:16869/Games/ZarOfHill
2019-03-14 15:53:59.0699|INFO|QueenPlayOWIN.QueenOfSpadesController|SetStatusKOH
2019-03-14 15:53:59.0879|INFO|QueenPlayOWIN.QueenOfSpadesController|data: 0  http://localhost:16869/Games/ZarOfHill
2019-03-14 15:54:11.4479|INFO|QueenPlayOWIN.QueenOfSpadesController|SetStatusKOH
2019-03-14 15:54:11.4669|INFO|QueenPlayOWIN.QueenOfSpadesController|data: 0  http://localhost:16869/Games/ZarOfHill
2019-03-14 17:15:42.0679|INFO|QueenPlayOWIN.QueenOfSpadesController|SetStatusKOH
2019-03-14 17:23:04.8399|INFO|QueenPlayOWIN.QueenOfSpadesController|SetStatusKOH
2019-03-14 17:23:04.8729|INFO|QueenPlayOWIN.QueenOfSpadesController|data: 1  http://192.168.1.125/game/Games/ZarOfHill
2019-03-14 17:23:33.6609|INFO|QueenPlayOWIN.QueenOfSpadesController|SetStatusKOH
2019-03-14 17:23:33.6609|INFO|QueenPlayOWIN.QueenOfSpadesController|data: 2  http://192.168.1.125/game/Games/ZarOfHill
